{
    "DA Warner": {
        "2009": "124.82",
        "2010": "148.21",
        "2011": "122.42",
        "2012": "175.16",
        "2013": "128.53",
        "2014": "144.04",
        "2015": "160.05",
        "2016": "152.68",
        "2017": "145.02"
    },
    "S Dhawan": {
        "2008": "118.51",
        "2009": "89.13",
        "2010": "117.78",
        "2011": "133.65",
        "2012": "130.13",
        "2013": "124.43",
        "2014": "126.20",
        "2015": "125.94",
        "2016": "119.41",
        "2017": "129.24"
    },
    "MC Henriques": {
        "2009": "95.00",
        "2010": "220.00",
        "2013": "134.65",
        "2014": "78.57",
        "2015": "137.04",
        "2016": "116.67",
        "2017": "138.05"
    },
    "Yuvraj Singh": {
        "2008": "160.73",
        "2009": "117.67",
        "2010": "132.04",
        "2011": "131.23",
        "2013": "126.42",
        "2014": "137.85",
        "2015": "119.53",
        "2016": "132.24",
        "2017": "140.96"
    },
    "DJ Hooda": {
        "2015": "157.58",
        "2016": "120.80",
        "2017": "149.06"
    },
    "BCJ Cutting": {
        "2014": "150.00",
        "2016": "200.00",
        "2017": "192.59"
    },
    "CH Gayle": {
        "2009": "126.42",
        "2010": "164.47",
        "2011": "186.55",
        "2012": "161.44",
        "2013": "160.74",
        "2014": "111.70",
        "2015": "149.86",
        "2016": "154.72",
        "2017": "126.16"
    },
    "Mandeep Singh": {
        "2010": "36.36",
        "2011": "114.29",
        "2012": "128.65",
        "2013": "120.18",
        "2014": "103.57",
        "2015": "159.80",
        "2017": "108.43"
    },
    "TM Head": {
        "2016": "145.24",
        "2017": "140.37"
    },
    "KM Jadhav": {
        "2010": "133.33",
        "2011": "78.26",
        "2013": "123.62",
        "2014": "152.88",
        "2015": "136.36",
        "2016": "139.39",
        "2017": "144.85"
    },
    "SR Watson": {
        "2008": "154.04",
        "2010": "162.39",
        "2011": "132.42",
        "2012": "154.39",
        "2013": "145.80",
        "2014": "127.32",
        "2015": "135.56",
        "2016": "133.33",
        "2017": "93.75"
    },
    "Sachin Baby": {
        "2013": "57.14",
        "2016": "151.22",
        "2017": "100.00"
    },
    "STR Binny": {
        "2010": "160.00",
        "2011": "119.35",
        "2012": "134.29",
        "2013": "150.00",
        "2014": "103.28",
        "2015": "124.64",
        "2016": "170.73",
        "2017": "103.90"
    },
    "S Aravind": {
        "2011": "150.00",
        "2012": "175.00",
        "2015": "0.00",
        "2017": "87.50"
    },
    "YS Chahal": {
        "2014": "100.00",
        "2015": "100.00",
        "2017": "50.00"
    },
    "TS Mills": {
        "2017": "81.82"
    },
    "A Choudhary": {
        "2017": "125.00"
    },
    "PA Patel": {
        "2008": "106.67",
        "2009": "119.85",
        "2010": "95.18",
        "2011": "111.11",
        "2012": "127.71",
        "2013": "116.86",
        "2014": "113.61",
        "2015": "139.61",
        "2016": "118.63",
        "2017": "138.64"
    },
    "JC Buttler": {
        "2016": "139.68",
        "2017": "155.91"
    },
    "RG Sharma": {
        "2008": "151.81",
        "2009": "117.34",
        "2010": "136.13",
        "2011": "125.66",
        "2012": "128.00",
        "2013": "132.05",
        "2014": "129.32",
        "2015": "145.13",
        "2016": "133.87",
        "2017": "125.54"
    },
    "N Rana": {
        "2016": "141.03",
        "2017": "126.71"
    },
    "AT Rayudu": {
        "2010": "148.84",
        "2011": "115.49",
        "2012": "132.95",
        "2013": "117.87",
        "2014": "127.36",
        "2015": "146.67",
        "2016": "120.77",
        "2017": "117.50"
    },
    "KH Pandya": {
        "2016": "189.76",
        "2017": "139.78"
    },
    "KA Pollard": {
        "2010": "186.84",
        "2011": "116.31",
        "2012": "142.33",
        "2013": "151.38",
        "2014": "136.06",
        "2015": "162.22",
        "2016": "149.36",
        "2017": "143.20"
    },
    "HH Pandya": {
        "2015": "179.41",
        "2016": "83.33",
        "2017": "155.81"
    },
    "TG Southee": {
        "2014": "100.00",
        "2015": "144.44",
        "2016": "165.00",
        "2017": "233.33"
    },
    "AM Rahane": {
        "2008": "31.58",
        "2009": "125.00",
        "2011": "122.22",
        "2012": "131.03",
        "2013": "108.26",
        "2014": "119.46",
        "2015": "133.57",
        "2016": "128.42",
        "2017": "118.29"
    },
    "MA Agarwal": {
        "2011": "124.03",
        "2012": "142.68",
        "2013": "107.81",
        "2014": "126.88",
        "2015": "120.86",
        "2016": "107.69",
        "2017": "100.00"
    },
    "SPD Smith": {
        "2012": "138.60",
        "2013": "120.90",
        "2014": "141.74",
        "2015": "134.65",
        "2016": "153.80",
        "2017": "123.00"
    },
    "BA Stokes": {
        "2017": "142.73"
    },
    "MS Dhoni": {
        "2008": "135.74",
        "2009": "127.04",
        "2010": "139.53",
        "2011": "160.73",
        "2012": "131.10",
        "2013": "161.74",
        "2014": "155.81",
        "2015": "126.21",
        "2016": "137.73",
        "2017": "117.62"
    },
    "JJ Roy": {
        "2017": "146.34"
    },
    "BB McCullum": {
        "2008": "208.33",
        "2009": "124.60",
        "2010": "116.24",
        "2011": "136.30",
        "2012": "105.92",
        "2013": "85.71",
        "2014": "124.34",
        "2015": "161.43",
        "2016": "139.56",
        "2017": "147.14"
    },
    "SK Raina": {
        "2008": "144.74",
        "2009": "141.82",
        "2010": "147.29",
        "2011": "134.63",
        "2012": "137.31",
        "2013": "151.89",
        "2014": "146.49",
        "2015": "124.45",
        "2016": "130.22",
        "2017": "146.45"
    },
    "AJ Finch": {
        "2010": "100.00",
        "2011": "103.92",
        "2012": "111.54",
        "2013": "139.24",
        "2014": "123.51",
        "2015": "75.76",
        "2016": "134.73",
        "2017": "167.89"
    },
    "KD Karthik": {
        "2008": "140.74",
        "2009": "135.27",
        "2010": "123.55",
        "2011": "130.22",
        "2012": "114.29",
        "2013": "127.01",
        "2014": "127.20",
        "2015": "124.17",
        "2016": "126.01",
        "2017": "141.79"
    },
    "G Gambhir": {
        "2008": "143.65",
        "2009": "106.01",
        "2010": "134.08",
        "2011": "124.10",
        "2012": "143.82",
        "2013": "123.73",
        "2014": "119.27",
        "2015": "120.14",
        "2016": "122.64",
        "2017": "131.11"
    },
    "CA Lynn": {
        "2012": "70.00",
        "2014": "117.31",
        "2016": "113.04",
        "2017": "180.57"
    },
    "MK Tiwary": {
        "2008": "124.14",
        "2009": "69.23",
        "2010": "131.25",
        "2011": "112.20",
        "2012": "108.37",
        "2013": "107.04",
        "2014": "129.27",
        "2015": "105.17",
        "2017": "139.67"
    },
    "DT Christian": {
        "2011": "121.74",
        "2012": "124.59",
        "2013": "43.75",
        "2017": "161.54"
    },
    "HM Amla": {
        "2016": "134.43",
        "2017": "147.30"
    },
    "M Vohra": {
        "2013": "137.61",
        "2014": "139.75",
        "2015": "106.02",
        "2016": "123.53",
        "2017": "147.06"
    },
    "WP Saha": {
        "2008": "137.82",
        "2009": "178.05",
        "2010": "132.08",
        "2011": "114.93",
        "2012": "57.14",
        "2013": "126.32",
        "2014": "147.06",
        "2015": "129.76",
        "2016": "128.04",
        "2017": "126.29"
    },
    "AR Patel": {
        "2014": "103.28",
        "2015": "120.99",
        "2016": "141.98",
        "2017": "138.60"
    },
    "GJ Maxwell": {
        "2012": "72.73",
        "2013": "133.33",
        "2014": "187.50",
        "2015": "133.91",
        "2016": "145.74",
        "2017": "180.11"
    },
    "DA Miller": {
        "2012": "135.53",
        "2013": "169.26",
        "2014": "154.07",
        "2015": "137.59",
        "2016": "122.30",
        "2017": "108.54"
    },
    "Vishnu Vinod": {
        "2017": "73.08"
    },
    "Iqbal Abdulla": {
        "2008": "50.00",
        "2010": "100.00",
        "2011": "125.00",
        "2012": "66.67",
        "2013": "64.29",
        "2015": "120.00",
        "2016": "148.15",
        "2017": "71.43"
    },
    "P Negi": {
        "2012": "123.33",
        "2015": "163.64",
        "2016": "98.41",
        "2017": "135.09"
    },
    "AP Tare": {
        "2010": "136.59",
        "2013": "146.43",
        "2014": "135.29",
        "2015": "83.33",
        "2016": "80.00",
        "2017": "84.00"
    },
    "SW Billings": {
        "2016": "146.97",
        "2017": "133.64"
    },
    "KK Nair": {
        "2013": "75.00",
        "2014": "142.62",
        "2015": "127.89",
        "2016": "122.70",
        "2017": "129.69"
    },
    "SV Samson": {
        "2013": "116.20",
        "2014": "125.00",
        "2015": "127.71",
        "2016": "113.58",
        "2017": "143.64"
    },
    "RR Pant": {
        "2016": "130.32",
        "2017": "165.93"
    },
    "CH Morris": {
        "2013": "88.24",
        "2015": "168.09",
        "2016": "178.95",
        "2017": "162.89"
    },
    "CR Brathwaite": {
        "2016": "230.00",
        "2017": "81.25"
    },
    "PJ Cummins": {
        "2015": "50.00",
        "2017": "146.30"
    },
    "A Mishra": {
        "2008": "88.10",
        "2009": "135.00",
        "2010": "83.33",
        "2011": "144.23",
        "2012": "80.95",
        "2013": "94.17",
        "2014": "114.29",
        "2015": "69.23",
        "2016": "28.57",
        "2017": "98.21"
    },
    "S Nadeem": {
        "2011": "0.00",
        "2012": "0.00",
        "2013": "51.85",
        "2014": "60.00",
        "2015": "28.57",
        "2016": "40.00",
        "2017": "33.33"
    },
    "Z Khan": {
        "2008": "83.72",
        "2009": "72.73",
        "2010": "184.62",
        "2011": "87.50",
        "2012": "70.59",
        "2014": "142.86",
        "2016": "46.15",
        "2017": "30.77"
    },
    "DR Smith": {
        "2008": "117.07",
        "2009": "167.16",
        "2010": "92.00",
        "2012": "162.75",
        "2013": "126.78",
        "2014": "140.94",
        "2015": "126.39",
        "2016": "148.23",
        "2017": "154.43"
    },
    "DS Kulkarni": {
        "2008": "17.65",
        "2009": "61.11",
        "2011": "50.00",
        "2012": "200.00",
        "2014": "137.04",
        "2015": "41.67",
        "2016": "175.00",
        "2017": "50.00"
    },
    "P Kumar": {
        "2008": "118.00",
        "2009": "141.30",
        "2010": "62.50",
        "2011": "90.91",
        "2012": "118.75",
        "2013": "134.15",
        "2014": "50.00",
        "2015": "72.00",
        "2016": "92.59",
        "2017": "88.89"
    },
    "Basil Thampi": {
        "2017": "106.67"
    },
    "RV Uthappa": {
        "2008": "123.71",
        "2009": "106.21",
        "2010": "174.55",
        "2011": "132.56",
        "2012": "119.61",
        "2013": "118.18",
        "2014": "140.41",
        "2015": "133.80",
        "2016": "139.67",
        "2017": "173.22"
    },
    "MK Pandey": {
        "2008": "40.00",
        "2009": "143.33",
        "2010": "113.30",
        "2011": "111.59",
        "2012": "133.04",
        "2013": "100.72",
        "2014": "121.73",
        "2015": "122.46",
        "2016": "138.95",
        "2017": "130.16"
    },
    "YK Pathan": {
        "2008": "179.45",
        "2009": "141.67",
        "2010": "163.33",
        "2011": "141.95",
        "2012": "121.79",
        "2013": "139.68",
        "2014": "161.90",
        "2015": "138.68",
        "2016": "148.05",
        "2017": "126.02"
    },
    "SA Yadav": {
        "2012": "0.00",
        "2014": "146.34",
        "2015": "140.00",
        "2016": "131.08",
        "2017": "121.35"
    },
    "CR Woakes": {
        "2017": "97.87"
    },
    "SP Narine": {
        "2012": "125.00",
        "2013": "120.00",
        "2014": "80.00",
        "2015": "100.00",
        "2016": "57.14",
        "2017": "175.56"
    },
    "Harbhajan Singh": {
        "2008": "176.47",
        "2009": "159.65",
        "2010": "179.69",
        "2011": "150.00",
        "2012": "136.59",
        "2013": "145.12",
        "2014": "115.38",
        "2015": "160.49",
        "2016": "108.79",
        "2017": "111.76"
    },
    "AB de Villiers": {
        "2008": "99.00",
        "2009": "131.48",
        "2010": "95.12",
        "2011": "132.26",
        "2012": "163.05",
        "2013": "167.70",
        "2014": "160.39",
        "2015": "178.48",
        "2016": "172.05",
        "2017": "136.26"
    },
    "CJ Anderson": {
        "2014": "146.77",
        "2015": "119.39",
        "2017": "116.92"
    },
    "F du Plessis": {
        "2012": "131.29",
        "2014": "129.17",
        "2015": "124.61",
        "2016": "131.95",
        "2017": "114.29"
    },
    "RA Tripathi": {
        "2017": "149.45"
    },
    "R Bhatia": {
        "2008": "132.14",
        "2009": "44.44",
        "2010": "147.06",
        "2011": "121.74",
        "2012": "123.33",
        "2013": "123.46",
        "2014": "127.27",
        "2015": "0.00",
        "2016": "170.00",
        "2017": "100.00"
    },
    "DL Chahar": {
        "2017": "233.33"
    },
    "A Zampa": {
        "2016": "0.00",
        "2017": "71.43"
    },
    "AB Dinda": {
        "2008": "75.00",
        "2009": "66.67",
        "2010": "0.00",
        "2011": "0.00",
        "2012": "60.00",
        "2013": "81.82",
        "2014": "38.46",
        "2017": "100.00"
    },
    "Imran Tahir": {
        "2014": "80.00",
        "2015": "83.33",
        "2016": "71.43",
        "2017": "0.00"
    },
    "NV Ojha": {
        "2009": "117.24",
        "2010": "133.67",
        "2011": "102.37",
        "2012": "119.13",
        "2013": "90.00",
        "2014": "149.41",
        "2015": "113.49",
        "2016": "100.00",
        "2017": "120.00"
    },
    "V Shankar": {
        "2017": "136.36"
    },
    "Rashid Khan": {
        "2017": "133.33"
    },
    "B Kumar": {
        "2011": "100.00",
        "2012": "102.44",
        "2013": "73.61",
        "2014": "50.00",
        "2015": "170.00",
        "2016": "160.71",
        "2017": "100.00"
    },
    "MP Stoinis": {
        "2016": "138.74",
        "2017": "72.00"
    },
    "MM Sharma": {
        "2013": "0.00",
        "2014": "33.33",
        "2015": "155.56",
        "2016": "125.93",
        "2017": "101.96"
    },
    "VR Aaron": {
        "2011": "0.00",
        "2012": "33.33",
        "2014": "105.88",
        "2015": "200.00",
        "2017": "45.45"
    },
    "V Kohli": {
        "2008": "111.31",
        "2009": "114.67",
        "2010": "148.15",
        "2011": "123.47",
        "2012": "112.61",
        "2013": "140.13",
        "2014": "123.92",
        "2015": "131.39",
        "2016": "152.37",
        "2017": "122.18"
    },
    "MJ McClenaghan": {
        "2015": "216.67",
        "2016": "147.83",
        "2017": "106.25"
    },
    "Ankit Sharma": {
        "2012": "138.46",
        "2014": "112.90",
        "2015": "116.67",
        "2016": "100.00",
        "2017": "162.50"
    },
    "SN Thakur": {
        "2015": "116.67",
        "2017": "0.00"
    },
    "RD Chahar": {
        "2017": "150.00"
    },
    "LH Ferguson": {
        "2017": "100.00"
    },
    "C de Grandhomme": {
        "2017": "141.30"
    },
    "Bipul Sharma": {
        "2010": "128.57",
        "2011": "127.78",
        "2012": "153.19",
        "2015": "50.00",
        "2016": "208.00",
        "2017": "132.00"
    },
    "SS Iyer": {
        "2015": "128.61",
        "2016": "73.91",
        "2017": "141.37"
    },
    "EJG Morgan": {
        "2010": "116.13",
        "2011": "121.14",
        "2013": "135.60",
        "2015": "124.03",
        "2016": "120.00",
        "2017": "106.45"
    },
    "KC Cariappa": {
        "2016": "118.18",
        "2017": "28.57"
    },
    "Sandeep Sharma": {
        "2013": "0.00",
        "2014": "60.00",
        "2015": "64.29",
        "2016": "88.89",
        "2017": "128.57"
    },
    "Ishan Kishan": {
        "2016": "107.32",
        "2017": "135.05"
    },
    "JD Unadkat": {
        "2013": "100.00",
        "2014": "16.67",
        "2017": "60.00"
    },
    "AF Milne": {
        "2017": "58.33"
    },
    "S Badree": {
        "2017": "60.00"
    },
    "AD Mathews": {
        "2009": "121.43",
        "2010": "129.44",
        "2012": "121.82",
        "2013": "123.40",
        "2015": "139.45",
        "2017": "117.86"
    },
    "Mohammed Shami": {
        "2013": "50.00",
        "2014": "50.00",
        "2016": "75.00",
        "2017": "154.17"
    },
    "Mohammad Nabi": {
        "2017": "66.67"
    },
    "I Sharma": {
        "2008": "109.09",
        "2009": "130.77",
        "2010": "35.29",
        "2011": "80.00",
        "2017": "69.23"
    },
    "RA Jadeja": {
        "2008": "137.96",
        "2009": "113.04",
        "2011": "125.21",
        "2012": "129.41",
        "2013": "151.80",
        "2014": "135.40",
        "2015": "107.03",
        "2016": "110.58",
        "2017": "138.98"
    },
    "AJ Tye": {
        "2017": "186.67"
    },
    "KS Williamson": {
        "2015": "131.03",
        "2016": "106.35",
        "2017": "155.88"
    },
    "SE Marsh": {
        "2008": "142.48",
        "2010": "135.90",
        "2011": "151.29",
        "2012": "121.88",
        "2013": "123.83",
        "2014": "144.44",
        "2015": "150.77",
        "2016": "121.64",
        "2017": "138.38"
    },
    "Shakib Al Hasan": {
        "2011": "134.78",
        "2012": "140.26",
        "2014": "148.75",
        "2015": "128.13",
        "2016": "110.19",
        "2017": "100.00"
    },
    "JP Faulkner": {
        "2012": "107.14",
        "2013": "100.00",
        "2014": "190.91",
        "2015": "133.62",
        "2016": "133.33",
        "2017": "96.67"
    },
    "MG Johnson": {
        "2013": "118.92",
        "2014": "117.65",
        "2015": "92.11",
        "2016": "42.86",
        "2017": "123.53"
    },
    "K Rabada": {
        "2017": "88.24"
    },
    "AD Nath": {
        "2016": "74.07",
        "2017": "0.00"
    },
    "NM Coulter-Nile": {
        "2013": "150.00",
        "2015": "110.00",
        "2016": "64.29",
        "2017": "115.38"
    },
    "Kuldeep Yadav": {
        "2017": "90.91"
    },
    "UT Yadav": {
        "2010": "75.00",
        "2011": "33.33",
        "2012": "28.57",
        "2013": "100.00",
        "2014": "50.00",
        "2015": "193.75",
        "2016": "166.67",
        "2017": "76.92"
    },
    "Washington Sundar": {
        "2017": "100.00"
    },
    "KV Sharma": {
        "2009": "33.33",
        "2013": "102.25",
        "2014": "156.67",
        "2015": "125.29",
        "2016": "132.35",
        "2017": "119.05"
    },
    "DM Bravo": {
        "2017": "120.00"
    },
    "AR Bawne": {
        "2017": "100.00"
    },
    "SP Jackson": {
        "2017": "122.58"
    },
    "MJ Guptill": {
        "2016": "110.91",
        "2017": "151.14"
    },
    "Anureet Singh": {
        "2015": "67.74",
        "2017": "125.00"
    },
    "IK Pathan": {
        "2008": "121.67",
        "2009": "135.37",
        "2010": "153.72",
        "2011": "115.75",
        "2012": "142.11",
        "2013": "100.00",
        "2014": "105.17",
        "2016": "92.86",
        "2017": "66.67"
    },
    "Ankit Soni": {
        "2017": "100.00"
    },
    "JJ Bumrah": {
        "2014": "50.00",
        "2016": "72.73",
        "2017": "133.33"
    },
    "SL Malinga": {
        "2009": "0.00",
        "2010": "100.00",
        "2011": "88.89",
        "2012": "107.27",
        "2013": "52.63",
        "2014": "50.00",
        "2015": "72.73",
        "2017": "233.33"
    },
    "PJ Sangwan": {
        "2008": "60.00",
        "2009": "60.00",
        "2010": "100.00",
        "2013": "200.00",
        "2017": "50.00"
    },
    "S Kaul": {
        "2013": "77.78",
        "2014": "100.00",
        "2017": "0.00"
    },
    "LMP Simmons": {
        "2014": "136.79",
        "2015": "123.96",
        "2016": "100.00",
        "2017": "125.86"
    },
    "MN Samuels": {
        "2012": "109.68",
        "2013": "44.44",
        "2017": "93.75"
    },
    "Swapnil Singh": {
        "2016": "0.00",
        "2017": "63.16"
    },
    "R Tewatia": {
        "2014": "146.15",
        "2017": "181.82"
    },
    "MM Patel": {
        "2008": "0.00",
        "2009": "126.92",
        "2010": "100.00",
        "2011": "0.00",
        "2012": "28.57",
        "2017": "0.00"
    },
    "SS Tiwary": {
        "2008": "130.00",
        "2009": "108.33",
        "2010": "136.68",
        "2011": "101.02",
        "2012": "115.03",
        "2013": "112.39",
        "2015": "144.58",
        "2016": "120.81",
        "2017": "123.91"
    },
    "TA Boult": {
        "2017": "62.50"
    },
    "CJ Jordan": {
        "2016": "100.00",
        "2017": "0.00"
    },
    "IR Jaggi": {
        "2011": "84.21",
        "2012": "72.73",
        "2017": "90.00"
    },
    "PP Chawla": {
        "2008": "152.46",
        "2009": "100.00",
        "2010": "106.35",
        "2011": "90.91",
        "2012": "121.59",
        "2013": "116.67",
        "2014": "165.00",
        "2015": "120.41",
        "2016": "107.69",
        "2017": "33.33"
    },
    "AS Rajpoot": {
        "2013": "33.33",
        "2017": "57.14"
    },
    "SC Ganguly": {
        "2008": "119.14",
        "2009": "93.90",
        "2010": "119.55",
        "2011": "90.16",
        "2012": "103.13"
    },
    "RT Ponting": {
        "2008": "88.68",
        "2013": "75.00"
    },
    "DJ Hussey": {
        "2008": "126.22",
        "2009": "168.85",
        "2010": "114.61",
        "2011": "107.69",
        "2012": "132.91",
        "2013": "113.33",
        "2014": "122.92"
    },
    "Mohammad Hafeez": {
        "2008": "82.14"
    },
    "R Dravid": {
        "2008": "126.09",
        "2009": "117.15",
        "2010": "131.53",
        "2011": "114.69",
        "2012": "113.68",
        "2013": "114.78"
    },
    "W Jaffer": {
        "2008": "110.91",
        "2009": "89.47"
    },
    "JH Kallis": {
        "2008": "115.43",
        "2009": "110.32",
        "2010": "118.38",
        "2011": "115.54",
        "2012": "109.16",
        "2013": "99.08",
        "2014": "117.56"
    },
    "CL White": {
        "2008": "113.33",
        "2010": "145.45",
        "2011": "96.33",
        "2012": "150.46",
        "2013": "118.00"
    },
    "MV Boucher": {
        "2008": "129.28",
        "2009": "131.40",
        "2010": "130.00",
        "2011": "166.67"
    },
    "B Akhil": {
        "2008": "153.13",
        "2009": "112.50",
        "2011": "144.44"
    },
    "AA Noffke": {
        "2008": "91.67"
    },
    "SB Joshi": {
        "2008": "50.00"
    },
    "ML Hayden": {
        "2008": "156.30",
        "2009": "153.06",
        "2010": "124.75"
    },
    "MEK Hussey": {
        "2008": "170.00",
        "2010": "88.64",
        "2011": "122.70",
        "2012": "113.28",
        "2013": "131.21",
        "2014": "118.18",
        "2015": "110.96"
    },
    "JDP Oram": {
        "2008": "146.15",
        "2009": "96.81",
        "2011": "0.00"
    },
    "S Badrinath": {
        "2008": "146.38",
        "2009": "115.06",
        "2010": "121.61",
        "2011": "128.44",
        "2012": "108.51",
        "2013": "105.69"
    },
    "K Goel": {
        "2008": "100.00",
        "2009": "97.14",
        "2010": "95.00"
    },
    "JR Hopes": {
        "2008": "150.66",
        "2011": "125.93"
    },
    "KC Sangakkara": {
        "2008": "161.84",
        "2009": "108.13",
        "2010": "139.23",
        "2011": "125.84",
        "2012": "117.89",
        "2013": "91.24"
    },
    "SM Katich": {
        "2008": "144.44",
        "2009": "126.05"
    },
    "T Kohli": {
        "2008": "68.75",
        "2009": "25.00"
    },
    "M Kaif": {
        "2008": "110.23",
        "2010": "93.55",
        "2011": "122.86",
        "2012": "87.50"
    },
    "DS Lehmann": {
        "2008": "105.26"
    },
    "M Rawat": {
        "2008": "92.31",
        "2009": "90.00",
        "2013": "45.45"
    },
    "D Salunkhe": {
        "2008": "137.50"
    },
    "SK Warne": {
        "2008": "123.33",
        "2009": "95.76",
        "2010": "61.90",
        "2011": "50.00"
    },
    "SK Trivedi": {
        "2008": "41.67",
        "2009": "57.89",
        "2010": "153.33",
        "2011": "0.00",
        "2012": "83.33",
        "2013": "42.86"
    },
    "V Sehwag": {
        "2008": "189.08",
        "2009": "150.68",
        "2010": "165.20",
        "2011": "179.35",
        "2012": "165.93",
        "2013": "130.33",
        "2014": "147.31",
        "2015": "121.35"
    },
    "L Ronchi": {
        "2008": "105.88",
        "2009": "33.33"
    },
    "ST Jayasuriya": {
        "2008": "167.27",
        "2009": "120.00",
        "2010": "114.29"
    },
    "DJ Thornely": {
        "2008": "98.15"
    },
    "PR Shah": {
        "2008": "107.89",
        "2009": "107.41",
        "2011": "100.00"
    },
    "AM Nayar": {
        "2008": "152.82",
        "2009": "132.26",
        "2010": "123.53",
        "2011": "102.99",
        "2012": "104.08",
        "2013": "94.59",
        "2014": "94.00"
    },
    "SM Pollock": {
        "2008": "132.76"
    },
    "S Chanderpaul": {
        "2008": "81.82"
    },
    "LRPL Taylor": {
        "2008": "183.53",
        "2009": "140.76",
        "2010": "120.78",
        "2011": "128.48",
        "2012": "117.51",
        "2013": "84.42",
        "2014": "100.00"
    },
    "AC Gilchrist": {
        "2008": "140.24",
        "2009": "154.30",
        "2010": "155.00",
        "2011": "141.10",
        "2012": "125.17",
        "2013": "130.34"
    },
    "Y Venugopal Rao": {
        "2008": "140.09",
        "2009": "109.32",
        "2010": "79.55",
        "2011": "124.66",
        "2012": "106.98",
        "2014": "124.62"
    },
    "VVS Laxman": {
        "2008": "118.66",
        "2009": "57.58",
        "2010": "108.06",
        "2011": "121.43"
    },
    "A Symonds": {
        "2008": "152.25",
        "2009": "151.46",
        "2010": "128.09",
        "2011": "100.70"
    },
    "SB Styris": {
        "2008": "96.77",
        "2009": "175.00",
        "2011": "250.00"
    },
    "AS Yadav": {
        "2008": "130.00"
    },
    "SB Bangar": {
        "2008": "97.96",
        "2009": "55.56"
    },
    "WPUJC Vaas": {
        "2008": "127.78",
        "2009": "142.86",
        "2010": "91.18"
    },
    "RP Singh": {
        "2008": "116.00",
        "2009": "52.94",
        "2010": "60.00",
        "2011": "75.00",
        "2012": "50.00"
    },
    "LR Shukla": {
        "2008": "137.80",
        "2009": "101.16",
        "2010": "155.56",
        "2011": "140.00",
        "2012": "131.58",
        "2013": "30.77",
        "2014": "92.11"
    },
    "DPMD Jayawardene": {
        "2008": "136.96",
        "2009": "133.72",
        "2010": "150.00",
        "2011": "120.96",
        "2012": "116.01",
        "2013": "111.18"
    },
    "S Sohal": {
        "2008": "50.00",
        "2009": "123.53",
        "2011": "134.33"
    },
    "B Lee": {
        "2008": "142.86",
        "2009": "88.57",
        "2010": "118.18",
        "2011": "55.56",
        "2012": "204.76",
        "2013": "175.00"
    },
    "WA Mota": {
        "2008": "96.43",
        "2009": "75.00"
    },
    "Kamran Akmal": {
        "2008": "169.23"
    },
    "Shahid Afridi": {
        "2008": "178.26"
    },
    "DJ Bravo": {
        "2008": "138.69",
        "2009": "109.48",
        "2010": "116.98",
        "2011": "183.33",
        "2012": "142.80",
        "2013": "116.96",
        "2014": "266.67",
        "2015": "137.09",
        "2016": "122.73"
    },
    "MA Khote": {
        "2008": "122.73"
    },
    "A Nehra": {
        "2008": "38.46",
        "2009": "100.00",
        "2010": "120.00",
        "2012": "100.00",
        "2013": "12.50",
        "2015": "57.14",
        "2016": "100.00"
    },
    "GC Smith": {
        "2008": "129.33",
        "2009": "101.35",
        "2010": "112.50",
        "2011": "83.33"
    },
    "Pankaj Singh": {
        "2008": "62.50",
        "2009": "50.00",
        "2010": "50.00"
    },
    "RR Sarwan": {
        "2008": "98.72"
    },
    "S Sreesanth": {
        "2008": "33.33",
        "2009": "36.84",
        "2010": "145.45",
        "2011": "22.22",
        "2013": "50.00"
    },
    "VRV Singh": {
        "2008": "166.67"
    },
    "R Vinay Kumar": {
        "2008": "128.57",
        "2009": "109.09",
        "2010": "88.57",
        "2011": "106.25",
        "2012": "112.31",
        "2013": "161.36",
        "2014": "85.71",
        "2015": "100.00",
        "2016": "108.33"
    },
    "AB Agarkar": {
        "2008": "120.41",
        "2009": "120.69",
        "2010": "140.00",
        "2011": "142.86",
        "2013": "75.00"
    },
    "M Kartik": {
        "2008": "121.43",
        "2009": "105.00",
        "2010": "100.00",
        "2011": "93.33",
        "2012": "123.81",
        "2013": "66.67"
    },
    "Shoaib Malik": {
        "2008": "116.33"
    },
    "MF Maharoof": {
        "2008": "160.76",
        "2009": "100.00",
        "2010": "137.50"
    },
    "VY Mahesh": {
        "2008": "75.00"
    },
    "TM Srivastava": {
        "2008": "80.00",
        "2009": "0.00"
    },
    "B Chipli": {
        "2008": "73.33",
        "2011": "122.67",
        "2012": "105.71",
        "2013": "115.79"
    },
    "DW Steyn": {
        "2008": "40.00",
        "2009": "0.00",
        "2010": "100.00",
        "2011": "113.51",
        "2012": "90.48",
        "2013": "148.65",
        "2014": "84.62",
        "2015": "153.85",
        "2016": "50.00"
    },
    "DB Das": {
        "2008": "113.68",
        "2012": "138.54",
        "2013": "105.26"
    },
    "HH Gibbs": {
        "2008": "113.84",
        "2009": "116.86",
        "2010": "117.70",
        "2012": "94.51"
    },
    "DNT Zoysa": {
        "2008": "144.44"
    },
    "D Kalyankrishna": {
        "2008": "50.00"
    },
    "SA Asnodkar": {
        "2008": "143.15",
        "2009": "105.10",
        "2010": "125.00",
        "2011": "100.00"
    },
    "Sohail Tanvir": {
        "2008": "129.03"
    },
    "Salman Butt": {
        "2008": "122.67"
    },
    "BJ Hodge": {
        "2008": "72.22",
        "2009": "118.93",
        "2010": "110.53",
        "2011": "125.71",
        "2012": "141.11",
        "2013": "141.52",
        "2014": "139.19"
    },
    "Umar Gul": {
        "2008": "231.58"
    },
    "SP Fleming": {
        "2008": "122.22"
    },
    "S Vidyut": {
        "2008": "135.65"
    },
    "JA Morkel": {
        "2008": "149.40",
        "2009": "139.73",
        "2010": "155.56",
        "2011": "137.04",
        "2012": "160.56",
        "2013": "124.32",
        "2014": "114.63",
        "2015": "130.00",
        "2016": "188.89"
    },
    "LPC Silva": {
        "2008": "159.26"
    },
    "DB Ravi Teja": {
        "2008": "136.47",
        "2009": "104.23",
        "2011": "129.93",
        "2012": "100.00",
        "2013": "88.89"
    },
    "Misbah-ul-Haq": {
        "2008": "151.22"
    },
    "YV Takawale": {
        "2008": "113.04",
        "2009": "81.82",
        "2014": "120.65"
    },
    "RR Raje": {
        "2008": "88.89",
        "2009": "133.33"
    },
    "Mohammad Asif": {
        "2008": "50.00"
    },
    "GD McGrath": {
        "2008": "80.00"
    },
    "Joginder Sharma": {
        "2008": "145.45",
        "2009": "111.11",
        "2011": "0.00"
    },
    "MS Gony": {
        "2008": "152.00",
        "2009": "185.71",
        "2010": "42.86",
        "2011": "50.00",
        "2012": "50.00",
        "2013": "174.07"
    },
    "M Muralitharan": {
        "2008": "0.00",
        "2009": "100.00",
        "2010": "50.00",
        "2011": "87.50",
        "2012": "66.67"
    },
    "M Ntini": {
        "2008": "63.16"
    },
    "DT Patil": {
        "2008": "100.00"
    },
    "A Kumble": {
        "2008": "100.00",
        "2009": "85.00",
        "2010": "66.67"
    },
    "S Anirudha": {
        "2008": "75.00",
        "2010": "205.26",
        "2011": "115.38",
        "2012": "288.89",
        "2013": "0.00",
        "2014": "60.00"
    },
    "CK Kapugedera": {
        "2008": "79.17"
    },
    "A Chopra": {
        "2008": "81.82",
        "2009": "65.00"
    },
    "T Taibu": {
        "2008": "119.23"
    },
    "J Arunkumar": {
        "2008": "104.17"
    },
    "PP Ojha": {
        "2008": "75.00",
        "2009": "28.57",
        "2010": "37.50",
        "2012": "42.86",
        "2013": "50.00",
        "2014": "75.00"
    },
    "SP Goswami": {
        "2008": "96.51",
        "2009": "89.06",
        "2010": "80.00",
        "2011": "100.00",
        "2012": "104.35"
    },
    "SR Tendulkar": {
        "2008": "113.23",
        "2009": "123.81",
        "2010": "135.99",
        "2011": "119.96",
        "2012": "118.18",
        "2013": "125.10"
    },
    "U Kaul": {
        "2008": "0.00"
    },
    "TM Dilshan": {
        "2008": "134.18",
        "2009": "126.33",
        "2010": "87.27",
        "2011": "128.65",
        "2012": "117.15",
        "2013": "89.69"
    },
    "AD Mascarenhas": {
        "2008": "112.50",
        "2009": "102.56",
        "2010": "118.18",
        "2012": "87.50",
        "2013": "100.00"
    },
    "Niraj Patel": {
        "2008": "132.53",
        "2009": "51.22"
    },
    "LA Pomersbach": {
        "2008": "165.35",
        "2009": "91.84",
        "2011": "131.71",
        "2013": "106.67"
    },
    "Younis Khan": {
        "2008": "42.86"
    },
    "PM Sarvesh Kumar": {
        "2008": "50.00"
    },
    "DP Vijaykumar": {
        "2008": "100.00"
    },
    "Shoaib Akhtar": {
        "2008": "37.50"
    },
    "Abdur Razzak": {
        "2008": "0.00"
    },
    "H Das": {
        "2008": "40.00"
    },
    "SD Chitnis": {
        "2008": "190.00",
        "2009": "77.78",
        "2011": "100.00",
        "2012": "107.81"
    },
    "CRD Fernando": {
        "2008": "200.00",
        "2010": "100.00"
    },
    "VS Yeligati": {
        "2008": "100.00"
    },
    "L Balaji": {
        "2008": "40.00",
        "2009": "70.00",
        "2010": "90.00",
        "2011": "200.00",
        "2013": "90.00",
        "2014": "33.33"
    },
    "A Mukund": {
        "2008": "0.00",
        "2013": "90.91"
    },
    "RR Powar": {
        "2008": "138.10",
        "2009": "104.55",
        "2010": "62.50",
        "2011": "84.62"
    },
    "JP Duminy": {
        "2009": "117.37",
        "2010": "121.64",
        "2011": "119.32",
        "2012": "131.79",
        "2014": "137.62",
        "2015": "133.33",
        "2016": "125.48"
    },
    "A Flintoff": {
        "2009": "126.32"
    },
    "T Thushara": {
        "2009": "37.50",
        "2010": "90.91"
    },
    "JD Ryder": {
        "2009": "116.33",
        "2011": "151.74",
        "2012": "124.07"
    },
    "KP Pietersen": {
        "2009": "113.48",
        "2010": "153.46",
        "2012": "147.14",
        "2014": "129.71",
        "2016": "122.95"
    },
    "T Henderson": {
        "2009": "75.00"
    },
    "Kamran Khan": {
        "2009": "60.00"
    },
    "RS Bopara": {
        "2009": "120.97",
        "2010": "117.04",
        "2015": "120.66"
    },
    "R Bishnoi": {
        "2009": "111.76"
    },
    "FH Edwards": {
        "2009": "80.00"
    },
    "PC Valthaty": {
        "2009": "50.00",
        "2011": "139.89",
        "2012": "61.54",
        "2013": "58.82"
    },
    "RJ Quiney": {
        "2009": "108.57"
    },
    "AS Raut": {
        "2009": "127.69",
        "2010": "116.67",
        "2011": "110.17"
    },
    "Yashpal Singh": {
        "2009": "73.13"
    },
    "M Manhas": {
        "2009": "123.08",
        "2010": "107.28",
        "2011": "93.75",
        "2012": "128.28",
        "2013": "76.47",
        "2014": "161.54"
    },
    "AA Bilakhia": {
        "2009": "90.48",
        "2010": "50.00"
    },
    "AN Ghosh": {
        "2009": "87.50"
    },
    "BAW Mendis": {
        "2009": "0.00",
        "2010": "100.00",
        "2013": "50.00"
    },
    "DL Vettori": {
        "2009": "115.63",
        "2010": "139.29",
        "2011": "103.33",
        "2012": "121.43"
    },
    "MN van Wyk": {
        "2009": "129.63"
    },
    "RE van der Merwe": {
        "2009": "127.72",
        "2010": "50.00",
        "2011": "87.50",
        "2013": "104.00"
    },
    "TL Suman": {
        "2009": "126.42",
        "2010": "121.21",
        "2011": "130.19",
        "2012": "84.21",
        "2013": "89.66"
    },
    "Shoaib Ahmed": {
        "2009": "16.67"
    },
    "GR Napier": {
        "2009": "93.75"
    },
    "KP Appanna": {
        "2009": "100.00",
        "2010": "66.67"
    },
    "LA Carseldine": {
        "2009": "122.54"
    },
    "SM Harwood": {
        "2009": "92.86"
    },
    "M Vijay": {
        "2009": "97.10",
        "2010": "157.70",
        "2011": "128.08",
        "2012": "127.47",
        "2013": "110.92",
        "2014": "114.72",
        "2015": "114.16",
        "2016": "127.61"
    },
    "SB Jakati": {
        "2009": "131.25",
        "2012": "58.33",
        "2016": "50.00"
    },
    "RJ Harris": {
        "2009": "122.22",
        "2010": "115.38",
        "2011": "82.05",
        "2012": "163.64",
        "2013": "40.00"
    },
    "D du Preez": {
        "2009": "76.92"
    },
    "M Morkel": {
        "2009": "100.00",
        "2010": "56.25",
        "2011": "164.00",
        "2012": "60.00",
        "2013": "193.33",
        "2014": "125.00",
        "2015": "133.33",
        "2016": "100.00"
    },
    "J Botha": {
        "2009": "126.19",
        "2011": "118.00",
        "2012": "109.09",
        "2013": "82.69",
        "2015": "213.33"
    },
    "C Nanda": {
        "2009": "0.00"
    },
    "Mashrafe Mortaza": {
        "2009": "100.00"
    },
    "A Singh": {
        "2009": "33.33",
        "2011": "25.00",
        "2012": "33.33"
    },
    "GJ Bailey": {
        "2009": "127.50",
        "2010": "81.48",
        "2014": "137.89",
        "2015": "136.22",
        "2016": "90.91"
    },
    "AB McDonald": {
        "2009": "75.00",
        "2010": "127.78",
        "2011": "114.29",
        "2012": "138.89",
        "2013": "0.00"
    },
    "Y Nagar": {
        "2009": "100.00",
        "2010": "57.14",
        "2011": "116.67",
        "2012": "117.16"
    },
    "SS Shaikh": {
        "2009": "85.71"
    },
    "R Ashwin": {
        "2009": "53.33",
        "2010": "80.00",
        "2011": "33.33",
        "2012": "126.67",
        "2013": "74.00",
        "2014": "106.25",
        "2015": "158.82",
        "2016": "107.89"
    },
    "Mohammad Ashraful": {
        "2009": "41.67"
    },
    "CA Pujara": {
        "2010": "113.45",
        "2011": "112.50",
        "2012": "78.26",
        "2013": "95.00",
        "2014": "106.20"
    },
    "OA Shah": {
        "2010": "122.92",
        "2011": "175.00",
        "2012": "140.52",
        "2013": "108.33"
    },
    "Anirudh Singh": {
        "2010": "95.65"
    },
    "Jaskaran Singh": {
        "2010": "72.73"
    },
    "R Sathish": {
        "2010": "124.49",
        "2011": "77.14",
        "2013": "144.30",
        "2016": "104.17"
    },
    "R McLaren": {
        "2010": "102.82",
        "2011": "95.05",
        "2013": "50.00"
    },
    "AA Jhunjhunwala": {
        "2010": "112.21",
        "2011": "89.47",
        "2012": "92.59"
    },
    "P Dogra": {
        "2010": "100.93",
        "2012": "64.00",
        "2013": "75.00"
    },
    "A Uniyal": {
        "2010": "57.14"
    },
    "MS Bisla": {
        "2010": "128.04",
        "2011": "90.00",
        "2012": "136.84",
        "2013": "119.76",
        "2014": "33.33",
        "2015": "123.33"
    },
    "YA Abdulla": {
        "2010": "100.00"
    },
    "JM Kemp": {
        "2010": "108.00"
    },
    "S Tyagi": {
        "2010": "75.00"
    },
    "RS Gavaskar": {
        "2010": "25.00"
    },
    "SE Bond": {
        "2010": "50.00"
    },
    "S Ladda": {
        "2010": "10.00"
    },
    "DP Nannes": {
        "2010": "30.77"
    },
    "MJ Lumb": {
        "2010": "151.53",
        "2011": "0.00"
    },
    "DR Martyn": {
        "2010": "80.77"
    },
    "S Narwal": {
        "2010": "115.38",
        "2013": "150.00"
    },
    "AB Barath": {
        "2010": "102.33"
    },
    "FY Fazal": {
        "2010": "116.88",
        "2011": "105.26"
    },
    "AC Voges": {
        "2010": "132.87"
    },
    "MD Mishra": {
        "2010": "122.15",
        "2011": "113.33",
        "2012": "100.00"
    },
    "J Theron": {
        "2010": "50.00",
        "2012": "116.67",
        "2015": "100.00"
    },
    "SJ Srivastava": {
        "2010": "50.00",
        "2011": "133.33"
    },
    "R Sharma": {
        "2010": "111.54",
        "2011": "113.04",
        "2012": "36.36",
        "2013": "70.59"
    },
    "SW Tait": {
        "2010": "92.31",
        "2011": "100.00",
        "2013": "33.33"
    },
    "KB Arun Karthik": {
        "2010": "80.00",
        "2011": "137.50",
        "2013": "122.50"
    },
    "KAJ Roach": {
        "2010": "111.11"
    },
    "PD Collingwood": {
        "2010": "133.96"
    },
    "CK Langeveldt": {
        "2010": "0.00",
        "2011": "100.00"
    },
    "VS Malik": {
        "2010": "160.00",
        "2014": "50.00"
    },
    "A Mithun": {
        "2010": "125.00",
        "2011": "150.00",
        "2013": "100.00"
    },
    "AP Dole": {
        "2010": "152.17"
    },
    "AN Ahmed": {
        "2010": "75.00",
        "2011": "138.46",
        "2014": "400.00",
        "2015": "200.00"
    },
    "RS Sodhi": {
        "2010": "200.00"
    },
    "DE Bollinger": {
        "2010": "123.53",
        "2011": "0.00",
        "2012": "60.00"
    },
    "S Sriram": {
        "2010": "112.90",
        "2011": "57.14"
    },
    "B Sumanth": {
        "2010": "94.74"
    },
    "C Madan": {
        "2010": "104.76"
    },
    "AG Paunikar": {
        "2010": "0.00",
        "2011": "93.33"
    },
    "MR Marsh": {
        "2010": "100.00",
        "2011": "102.00",
        "2013": "133.03",
        "2016": "63.64"
    },
    "Harmeet Singh": {
        "2010": "0.00",
        "2012": "214.29",
        "2013": "75.00"
    },
    "RV Gomez": {
        "2011": "107.69",
        "2013": "400.00"
    },
    "AUK Pathan": {
        "2011": "194.44",
        "2012": "87.50"
    },
    "UBT Chand": {
        "2011": "25.00",
        "2012": "105.71",
        "2013": "103.68",
        "2014": "30.00",
        "2015": "128.09",
        "2016": "20.00"
    },
    "DJ Jacobs": {
        "2011": "110.99",
        "2012": "10.00"
    },
    "Sunny Singh": {
        "2011": "141.94"
    },
    "NJ Rimmington": {
        "2011": "100.00"
    },
    "AL Menaria": {
        "2011": "118.35",
        "2012": "110.14",
        "2013": "50.00"
    },
    "WD Parnell": {
        "2011": "97.62",
        "2012": "89.66",
        "2013": "71.43",
        "2014": "100.00"
    },
    "JJ van der Wath": {
        "2011": "111.76"
    },
    "R Ninan": {
        "2011": "66.67"
    },
    "MS Wade": {
        "2011": "69.70"
    },
    "TD Paine": {
        "2011": "51.72"
    },
    "SB Wagh": {
        "2011": "66.67"
    },
    "AC Thomas": {
        "2011": "25.00",
        "2012": "126.67"
    },
    "JEC Franklin": {
        "2011": "138.75",
        "2012": "100.87"
    },
    "DH Yagnik": {
        "2011": "86.96",
        "2012": "185.71",
        "2013": "137.37",
        "2014": "83.33"
    },
    "S Randiv": {
        "2011": "50.00"
    },
    "BJ Haddin": {
        "2011": "163.64"
    },
    "NLTC Perera": {
        "2011": "86.21",
        "2012": "58.33",
        "2013": "147.98",
        "2015": "106.67",
        "2016": "161.86"
    },
    "NL McCullum": {
        "2011": "121.74"
    },
    "JE Taylor": {
        "2011": "100.00"
    },
    "J Syed Mohammad": {
        "2011": "123.08",
        "2012": "400.00",
        "2013": "76.92"
    },
    "RN ten Doeschate": {
        "2011": "146.05",
        "2012": "104.76",
        "2013": "141.27",
        "2014": "163.64",
        "2015": "137.78"
    },
    "TR Birt": {
        "2011": "133.90"
    },
    "AG Murtaza": {
        "2011": "40.00",
        "2012": "60.00",
        "2013": "125.00"
    },
    "Harpreet Singh": {
        "2011": "70.00",
        "2012": "100.00"
    },
    "M Klinger": {
        "2011": "98.72"
    },
    "AC Blizzard": {
        "2011": "143.18",
        "2012": "0.00"
    },
    "I Malhotra": {
        "2011": "175.00"
    },
    "L Ablish": {
        "2011": "0.00"
    },
    "CA Ingram": {
        "2011": "103.85"
    },
    "P Parameswaran": {
        "2011": "100.00",
        "2012": "50.00"
    },
    "CJ Ferguson": {
        "2011": "89.29",
        "2012": "80.95"
    },
    "AA Chavan": {
        "2011": "33.33",
        "2012": "137.50"
    },
    "ND Doshi": {
        "2011": "0.00"
    },
    "Y Gnaneswara Rao": {
        "2011": "111.11"
    },
    "S Rana": {
        "2011": "125.00",
        "2014": "115.15"
    },
    "BA Bhatt": {
        "2011": "0.00",
        "2012": "300.00"
    },
    "RE Levi": {
        "2012": "120.27"
    },
    "KK Cooper": {
        "2012": "195.00",
        "2013": "177.27",
        "2014": "157.14"
    },
    "HV Patel": {
        "2012": "100.00",
        "2014": "185.71",
        "2015": "157.14"
    },
    "DAJ Bracewell": {
        "2012": "133.33"
    },
    "DJ Harris": {
        "2012": "115.53"
    },
    "GB Hogg": {
        "2012": "93.75",
        "2015": "116.67"
    },
    "RR Bhatkal": {
        "2012": "0.00"
    },
    "CJ McKay": {
        "2012": "53.33"
    },
    "N Saini": {
        "2012": "101.40"
    },
    "Azhar Mahmood": {
        "2012": "132.41",
        "2013": "132.91",
        "2015": "87.50"
    },
    "RJ Peterson": {
        "2012": "115.63"
    },
    "KMDN Kulasekara": {
        "2012": "200.00"
    },
    "A Ashish Reddy": {
        "2012": "133.33",
        "2013": "140.00",
        "2015": "160.87",
        "2016": "160.00"
    },
    "V Pratap Singh": {
        "2012": "0.00"
    },
    "BB Samantray": {
        "2012": "100.00",
        "2013": "114.04"
    },
    "MJ Clarke": {
        "2012": "108.33"
    },
    "Gurkeerat Singh": {
        "2012": "172.22",
        "2013": "119.39",
        "2015": "92.68",
        "2016": "131.03"
    },
    "AP Majumdar": {
        "2012": "116.88"
    },
    "PA Reddy": {
        "2012": "122.22",
        "2013": "91.35"
    },
    "K Upadhyay": {
        "2012": "137.50",
        "2013": "100.00"
    },
    "P Awana": {
        "2012": "80.00",
        "2013": "11.11"
    },
    "AD Russell": {
        "2012": "181.48",
        "2013": "80.00",
        "2014": "25.00",
        "2015": "195.43",
        "2016": "168.00"
    },
    "A Chandila": {
        "2012": "0.00",
        "2013": "66.67"
    },
    "Sunny Gupta": {
        "2012": "0.00"
    },
    "MC Juneja": {
        "2013": "102.99"
    },
    "GH Vihari": {
        "2013": "89.90",
        "2015": "113.89"
    },
    "MDKJ Perera": {
        "2013": "115.38"
    },
    "R Shukla": {
        "2013": "50.00",
        "2014": "85.71"
    },
    "B Laughlin": {
        "2013": "44.44"
    },
    "BMAJ Mendis": {
        "2013": "85.19"
    },
    "R Rampaul": {
        "2013": "110.26",
        "2014": "100.00"
    },
    "SMSM Senanayake": {
        "2013": "64.71"
    },
    "BJ Rohrer": {
        "2013": "140.41"
    },
    "KL Rahul": {
        "2013": "125.00",
        "2014": "103.61",
        "2015": "117.29",
        "2016": "149.82"
    },
    "Q de Kock": {
        "2013": "43.75",
        "2014": "121.21",
        "2015": "158.97",
        "2016": "140.29"
    },
    "R Dhawan": {
        "2013": "123.81",
        "2014": "109.33",
        "2015": "112.12",
        "2016": "233.33"
    },
    "LJ Wright": {
        "2013": "174.60"
    },
    "IC Pandey": {
        "2013": "0.00"
    },
    "CM Gautam": {
        "2013": "127.03",
        "2014": "127.59",
        "2015": "80.00"
    },
    "X Thalaivan Sargunam": {
        "2013": "58.82"
    },
    "DJG Sammy": {
        "2013": "136.03",
        "2014": "122.68",
        "2015": "72.22"
    },
    "KW Richardson": {
        "2013": "94.44",
        "2014": "50.00",
        "2016": "100.00"
    },
    "UA Birla": {
        "2013": "60.00"
    },
    "Parvez Rasool": {
        "2013": "66.67",
        "2015": "100.00",
        "2016": "111.11"
    },
    "PV Tambe": {
        "2013": "66.67",
        "2014": "55.56",
        "2015": "60.00",
        "2016": "42.11"
    },
    "NJ Maddinson": {
        "2014": "114.29",
        "2015": "57.14"
    },
    "JDS Neesham": {
        "2014": "97.83"
    },
    "MA Starc": {
        "2014": "114.29",
        "2015": "78.57"
    },
    "BR Dunk": {
        "2014": "122.22"
    },
    "RR Rossouw": {
        "2014": "95.12",
        "2015": "150.00"
    },
    "Shivam Sharma": {
        "2014": "166.67"
    },
    "VH Zol": {
        "2014": "111.54"
    },
    "BE Hendricks": {
        "2014": "0.00",
        "2015": "50.00"
    },
    "S Gopal": {
        "2014": "110.00",
        "2015": "100.00",
        "2016": "12.50"
    },
    "M de Lange": {
        "2014": "50.00"
    },
    "JO Holder": {
        "2014": "133.33",
        "2016": "125.00"
    },
    "Karanveer Singh": {
        "2014": "100.00",
        "2015": "68.75"
    },
    "SA Abbott": {
        "2015": "123.08"
    },
    "J Suchith": {
        "2015": "154.55"
    },
    "RG More": {
        "2015": "100.00"
    },
    "D Wiese": {
        "2015": "145.56",
        "2016": "125.00"
    },
    "SN Khan": {
        "2015": "156.94",
        "2016": "216.13"
    },
    "DJ Muthuswami": {
        "2015": "33.33"
    },
    "C Munro": {
        "2016": "112.90"
    },
    "P Sahu": {
        "2016": "146.15"
    },
    "KJ Abbott": {
        "2016": "162.50"
    },
    "M Ashwin": {
        "2016": "0.00"
    },
    "NS Naik": {
        "2016": "81.82"
    },
    "PSP Handscomb": {
        "2016": "50.00"
    },
    "J Yadav": {
        "2016": "66.67"
    },
    "UT Khawaja": {
        "2016": "127.62"
    },
    "F Behardien": {
        "2016": "107.69"
    },
    "BB Sran": {
        "2016": "125.00"
    },
    "S Kaushik": {
        "2016": "0.00"
    },
    "ER Dwivedi": {
        "2016": "193.33"
    }
}